dump.vcd
$date
	Tue Sep 23 18:09:01 2025
$end
$version
	Icarus Verilog
$end
$timescale
	1s
$end
$scope module ram_tb $end
$var wire 8 ! rd_data [7:0] $end
$var parameter 32 " CYCLE $end
$var reg 1 # clk $end
$var reg 8 $ exp_data [7:0] $end
$var reg 4 % rd_addr [3:0] $end
$var reg 1 & rd_enb $end
$var reg 1 ' rst $end
$var reg 4 ( wr_addr [3:0] $end
$var reg 8 ) wr_data [7:0] $end
$var reg 1 * wr_enb $end
$scope module DUT $end
$var wire 1 # clk $end
$var wire 4 + rd_addr [3:0] $end
$var wire 1 & rd_enb $end
$var wire 1 ' rst $end
$var wire 4 , wr_addr [3:0] $end
$var wire 8 - wr_data [7:0] $end
$var wire 1 * wr_enb $end
$var reg 5 . i [4:0] $end
$var reg 8 / rd_data [7:0] $end
$upscope $end
$scope task read $end
$var reg 4 0 read_addr [3:0] $end
$upscope $end
$scope task reset $end
$upscope $end
$scope task reset_check $end
$upscope $end
$scope task write $end
$var reg 4 1 write_addr [3:0] $end
$var reg 8 2 write_data [7:0] $end
$upscope $end
$upscope $end
$enddefinitions $end
$comment Show the parameter values. $end
$dumpall
b1010 "
$end
#0
$dumpvars
bx 2
bx 1
bx 0
bx /
bx .
bx -
bx ,
bx +
x*
bx )
bx (
x'
x&
bx %
bx $
0#
bx !
$end
#5
1#
#10
b10111 )
b10111 -
b1010 (
b1010 ,
1*
1'
0#
#15
b0 !
b0 /
b10000 .
1#
#20
b1010 %
b1010 +
1&
0#
#25
b10000 .
b10111 $
1#
#30
0#
#35
b10000 .
1#
#40
b10000001 2
b100 1
0'
0#
#45
1#
#50
b1100011 2
b1001 1
b10000001 )
b10000001 -
b100 (
b100 ,
0#
#55
b10111 !
b10111 /
1#
#60
b10001101 2
b1101 1
b1100011 )
b1100011 -
b1001 (
b1001 ,
0#
#65
1#
#70
b10010 2
b101 1
b10001101 )
b10001101 -
b1101 (
b1101 ,
0#
#75
1#
#80
b1101 2
b1 1
b10010 )
b10010 -
b101 (
b101 ,
0#
#85
1#
#90
b111101 2
b110 1
b1101 )
b1101 -
b1 (
b1 ,
0#
#95
1#
#100
b10001100 2
b1101 1
b111101 )
b111101 -
b110 (
b110 ,
0#
#105
1#
#110
b11000110 2
b1001 1
b10001100 )
b10001100 -
b1101 (
b1101 ,
0#
#115
1#
#120
b10101010 2
b101 1
b11000110 )
b11000110 -
b1001 (
b1001 ,
0#
#125
1#
#130
b1110111 2
b10101010 )
b10101010 -
b101 (
b101 ,
0#
#135
1#
#140
b10001111 2
b10 1
b1110111 )
b1110111 -
0#
#145
1#
#150
b11001110 2
b10001111 )
b10001111 -
b10 (
b10 ,
0#
#155
1#
#160
b11000101 2
b1000 1
b11001110 )
b11001110 -
0#
#165
1#
#170
b10111101 2
b1100 1
b11000101 )
b11000101 -
b1000 (
b1000 ,
0#
#175
1#
#180
b1100101 2
b1101 1
b10111101 )
b10111101 -
b1100 (
b1100 ,
0#
#185
1#
#190
b1010 2
b11 1
b1100101 )
b1100101 -
b1101 (
b1101 ,
0#
#195
1#
#200
b100000 2
b0 1
b1010 )
b1010 -
b11 (
b11 ,
0#
#205
1#
#210
b10011101 2
b1010 1
b100000 )
b100000 -
b0 (
b0 ,
0#
#215
1#
#220
b10011 2
b110 1
b10011101 )
b10011101 -
b1010 (
b1010 ,
0#
#225
1#
#230
b1010011 2
b1101 1
b10011 )
b10011 -
b110 (
b110 ,
0#
#235
b10011101 !
b10011101 /
b10011101 $
1#
#240
b1011 0
0*
b1010011 )
b1010011 -
b1101 (
b1101 ,
0#
#245
1#
#250
b101 0
b1011 %
b1011 +
0#
#255
b0 !
b0 /
bx $
1#
#260
b10 0
b101 %
b101 +
0#
#265
b1110111 !
b1110111 /
b1110111 $
1#
#270
b1110 0
b10 %
b10 +
0#
#275
b11001110 !
b11001110 /
b11001110 $
1#
#280
b1101 0
b1110 %
b1110 +
0#
#285
b0 !
b0 /
bx $
1#
#290
b1111 0
b1101 %
b1101 +
0#
#295
b1100101 !
b1100101 /
b1100101 $
1#
#300
b11 0
b1111 %
b1111 +
0#
#305
b0 !
b0 /
bx $
1#
#310
b1010 0
b11 %
b11 +
0#
#315
b1010 !
b1010 /
b1010 $
1#
#320
b1010 %
b1010 +
0#
#325
b10011101 !
b10011101 /
b10011101 $
1#
#330
b1100 0
0#
#335
1#
#340
b10 0
b1100 %
b1100 +
0#
#345
b10111101 !
b10111101 /
b10111101 $
1#
#350
b1010 0
b10 %
b10 +
0#
#355
b11001110 !
b11001110 /
b11001110 $
1#
#360
b1 0
b1010 %
b1010 +
0#
#365
b10011101 !
b10011101 /
b10011101 $
1#
#370
b1000 0
b1 %
b1 +
0#
#375
b1101 !
b1101 /
b1101 $
1#
#380
b1000 %
b1000 +
0#
#385
b11000101 !
b11000101 /
b11000101 $
1#
#390
b1001 0
0#
#395
1#
#400
b1011 0
b1001 %
b1001 +
0#
#405
b11000110 !
b11000110 /
b11000110 $
1#
#410
b110 0
b1011 %
b1011 +
0#
#415
b0 !
b0 /
bx $
1#
#420
b110 %
b110 +
0#
#425
b10011 !
b10011 /
b10011 $
1#
#430
b1110 0
0#
#435
1#
#440
b1011 2
b1010 1
b1100 0
0&
b1110 %
b1110 +
0#
#445
1#
#450
b1001111 2
b101 1
b1 0
b1100 %
b1100 +
1&
b1011 )
b1011 -
b1010 (
b1010 ,
1*
0#
#455
b10111101 !
b10111101 /
b10111101 $
1#
#460
b1111110 2
b1010 1
b1011 0
b1 %
b1 +
b1001111 )
b1001111 -
b101 (
b101 ,
0#
#465
b1101 !
b1101 /
b1101 $
1#
#470
b11011001 2
b1 1
b101 0
b1011 %
b1011 +
b1111110 )
b1111110 -
b1010 (
b1010 ,
0#
#475
b0 !
b0 /
bx $
1#
#480
b10011111 2
b1100 1
b10 0
b101 %
b101 +
b11011001 )
b11011001 -
b1 (
b1 ,
0#
#485
b1001111 !
b1001111 /
b1001111 $
1#
#490
b10110111 2
b1000 1
b1111 0
b10 %
b10 +
b10011111 )
b10011111 -
b1100 (
b1100 ,
0#
#495
b11001110 !
b11001110 /
b11001110 $
1#
#500
b1011011 2
b1100 1
b1111 %
b1111 +
b10110111 )
b10110111 -
b1000 (
b1000 ,
0#
#505
b0 !
b0 /
bx $
1#
#510
b11010000 2
b1001 1
b1001 0
b1011011 )
b1011011 -
b1100 (
b1100 ,
0#
#515
1#
#520
b10010110 2
b1 1
b111 0
b1001 %
b1001 +
b11010000 )
b11010000 -
b1001 (
b1001 ,
0#
#525
b11000110 !
b11000110 /
b11000110 $
1#
#530
b11001000 2
b10 1
b1100 0
b111 %
b111 +
b10010110 )
b10010110 -
b1 (
b1 ,
0#
#535
b0 !
b0 /
bx $
1#
#540
b10010 2
b1101 1
b111 0
b1100 %
b1100 +
b11001000 )
b11001000 -
b10 (
b10 ,
0#
#545
b1011011 !
b1011011 /
b1011011 $
1#
#550
b111001 2
b1110 0
b111 %
b111 +
b10010 )
b10010 -
b1101 (
b1101 ,
0#
#555
b0 !
b0 /
bx $
1#
#560
b10000101 2
b11 1
b1111 0
b1110 %
b1110 +
b111001 )
b111001 -
0#
#565
1#
#570
b1001001 2
b1011 1
b1000 0
b1111 %
b1111 +
b10000101 )
b10000101 -
b11 (
b11 ,
0#
#575
1#
#580
b1011000 2
b1010 1
b1111 0
b1000 %
b1000 +
b1001001 )
b1001001 -
b1011 (
b1011 ,
0#
#585
b10110111 !
b10110111 /
b10110111 $
1#
#590
b10011100 2
b1110 1
b110 0
b1111 %
b1111 +
b1011000 )
b1011000 -
b1010 (
b1010 ,
0#
#595
b0 !
b0 /
bx $
1#
#600
b1110011 2
b110 1
b1010 0
b110 %
b110 +
b10011100 )
b10011100 -
b1110 (
b1110 ,
0#
#605
b10011 !
b10011 /
b10011 $
1#
#610
b10110011 2
b1111 1
b11 0
b1010 %
b1010 +
b1110011 )
b1110011 -
b110 (
b110 ,
0#
#615
b1011000 !
b1011000 /
b1011000 $
1#
#620
b11110111 2
b100 1
b1111 0
b11 %
b11 +
b10110011 )
b10110011 -
b1111 (
b1111 ,
0#
#625
b10000101 !
b10000101 /
b10000101 $
1#
#630
b1011010 2
b110 1
b1011 0
b1111 %
b1111 +
b11110111 )
b11110111 -
b100 (
b100 ,
0#
#635
b10110011 !
b10110011 /
b10110011 $
1#
#640
0&
0*
b1011 %
b1011 +
b1011010 )
b1011010 -
b110 (
b110 ,
0#
